{
  "listaClientes": [
    {
      "Nombre": "wdwefe",
      "Apellidos": "wdwdwd",
      "Email": "wjefh@gmail.com",
      "Celular": "23232",
      "Hora": "11:09",
      "Servicio": "Otro Servicio",
      "Fecha": "2022-07-29T04:00:00.000Z",
      "Descripcion": "fsrfsdfgdfg",
      "id": 4
    }
  ],
  "comments": [
    {
      "id": 1,
      "body": "some comment",
      "postId": 1
    }
  ],
  "profile": {
    "name": "typicode"
  }
}